<?xml version="1.0" encoding="UTF-8" standalone="no"?>
<!DOCTYPE svg PUBLIC "-//W3C//DTD SVG 1.1//EN"
 "http://www.w3.org/Graphics/SVG/1.1/DTD/svg11.dtd">
<!-- Generated by graphviz version 2.40.1 (20161225.0304)
 -->
<!-- Title: %0 Pages: 1 -->
<svg width="458pt" height="456pt"
 viewBox="0.00 0.00 458.00 456.20" xmlns="http://www.w3.org/2000/svg" xmlns:xlink="http://www.w3.org/1999/xlink">
<g id="graph0" class="graph" transform="scale(1 1) rotate(0) translate(4 452.2)">
<title>%0</title>
<polygon fill="#ffffff" stroke="transparent" points="-4,4 -4,-452.2 454,-452.2 454,4 -4,4"/>
<text text-anchor="middle" x="225" y="-8.2" font-family="Helvetica,sans-Serif" font-size="14.00" fill="#000000">nodes=15</text>
<!-- 18364192 -->
<g id="node1" class="node">
<title>18364192</title>
<path fill="none" stroke="#000000" d="M276,-400.5C276,-400.5 306,-400.5 306,-400.5 312,-400.5 318,-406.5 318,-412.5 318,-412.5 318,-435.7 318,-435.7 318,-441.7 312,-447.7 306,-447.7 306,-447.7 276,-447.7 276,-447.7 270,-447.7 264,-441.7 264,-435.7 264,-435.7 264,-412.5 264,-412.5 264,-406.5 270,-400.5 276,-400.5"/>
<text text-anchor="middle" x="290.8096" y="-432" font-family="Helvetica,sans-Serif" font-size="13.00" fill="#000000">fib(5)</text>
<polyline fill="none" stroke="#000000" points="264,-424.1 317.6192,-424.1 "/>
<text text-anchor="middle" x="290.8096" y="-408.4" font-family="Helvetica,sans-Serif" font-size="13.00" fill="#000000">ret: 5</text>
</g>
<!-- 18363144 -->
<g id="node2" class="node">
<title>18363144</title>
<path fill="none" stroke="#000000" d="M240,-306.7C240,-306.7 270,-306.7 270,-306.7 276,-306.7 282,-312.7 282,-318.7 282,-318.7 282,-341.9 282,-341.9 282,-347.9 276,-353.9 270,-353.9 270,-353.9 240,-353.9 240,-353.9 234,-353.9 228,-347.9 228,-341.9 228,-341.9 228,-318.7 228,-318.7 228,-312.7 234,-306.7 240,-306.7"/>
<text text-anchor="middle" x="254.8096" y="-338.2" font-family="Helvetica,sans-Serif" font-size="13.00" fill="#000000">fib(4)</text>
<polyline fill="none" stroke="#000000" points="228,-330.3 281.6192,-330.3 "/>
<text text-anchor="middle" x="254.8096" y="-314.6" font-family="Helvetica,sans-Serif" font-size="13.00" fill="#000000">ret: 3</text>
</g>
<!-- 18364192&#45;&gt;18363144 -->
<g id="edge1" class="edge">
<title>18364192&#45;&gt;18363144</title>
<path fill="none" stroke="#0d0d0d" d="M281.9157,-400.4303C277.6095,-389.2103 272.3926,-375.6173 267.7024,-363.3969"/>
<polygon fill="#0d0d0d" stroke="#0d0d0d" points="270.9322,-362.044 264.0814,-353.9621 264.397,-364.5523 270.9322,-362.044"/>
<text text-anchor="middle" x="286.5568" y="-374.8" font-family="Helvetica,sans-Serif" font-size="8.00" fill="#999999">1 (⇑9)</text>
</g>
<!-- 18269072 -->
<g id="node11" class="node">
<title>18269072</title>
<path fill="none" stroke="#000000" d="M336,-306.7C336,-306.7 366,-306.7 366,-306.7 372,-306.7 378,-312.7 378,-318.7 378,-318.7 378,-341.9 378,-341.9 378,-347.9 372,-353.9 366,-353.9 366,-353.9 336,-353.9 336,-353.9 330,-353.9 324,-347.9 324,-341.9 324,-341.9 324,-318.7 324,-318.7 324,-312.7 330,-306.7 336,-306.7"/>
<text text-anchor="middle" x="350.8096" y="-338.2" font-family="Helvetica,sans-Serif" font-size="13.00" fill="#000000">fib(3)</text>
<polyline fill="none" stroke="#000000" points="324,-330.3 377.6192,-330.3 "/>
<text text-anchor="middle" x="350.8096" y="-314.6" font-family="Helvetica,sans-Serif" font-size="13.00" fill="#000000">ret: 2</text>
</g>
<!-- 18364192&#45;&gt;18269072 -->
<g id="edge2" class="edge">
<title>18364192&#45;&gt;18269072</title>
<path fill="none" stroke="#828282" d="M306.1405,-400.4303C313.4596,-388.9881 322.3573,-375.078 330.2926,-362.6725"/>
<polygon fill="#828282" stroke="#828282" points="333.4242,-364.2722 335.8643,-353.9621 327.5274,-360.5002 333.4242,-364.2722"/>
<text text-anchor="middle" x="338.004" y="-374.8" font-family="Helvetica,sans-Serif" font-size="8.00" fill="#999999">10 (⇑14)</text>
</g>
<!-- 18361600 -->
<g id="node3" class="node">
<title>18361600</title>
<path fill="none" stroke="#000000" d="M120,-212.9C120,-212.9 150,-212.9 150,-212.9 156,-212.9 162,-218.9 162,-224.9 162,-224.9 162,-248.1 162,-248.1 162,-254.1 156,-260.1 150,-260.1 150,-260.1 120,-260.1 120,-260.1 114,-260.1 108,-254.1 108,-248.1 108,-248.1 108,-224.9 108,-224.9 108,-218.9 114,-212.9 120,-212.9"/>
<text text-anchor="middle" x="134.8096" y="-244.4" font-family="Helvetica,sans-Serif" font-size="13.00" fill="#000000">fib(3)</text>
<polyline fill="none" stroke="#000000" points="108,-236.5 161.6192,-236.5 "/>
<text text-anchor="middle" x="134.8096" y="-220.8" font-family="Helvetica,sans-Serif" font-size="13.00" fill="#000000">ret: 2</text>
</g>
<!-- 18363144&#45;&gt;18361600 -->
<g id="edge3" class="edge">
<title>18363144&#45;&gt;18361600</title>
<path fill="none" stroke="#1a1a1a" d="M227.7701,-309.0153C210.7397,-295.7032 188.6281,-278.4193 170.2642,-264.0648"/>
<polygon fill="#1a1a1a" stroke="#1a1a1a" points="172.1562,-261.1014 162.1221,-257.7004 167.8453,-266.6165 172.1562,-261.1014"/>
<text text-anchor="middle" x="210.5568" y="-281" font-family="Helvetica,sans-Serif" font-size="8.00" fill="#999999">2 (⇑5)</text>
</g>
<!-- 15210576 -->
<g id="node8" class="node">
<title>15210576</title>
<path fill="none" stroke="#000000" d="M240,-212.9C240,-212.9 270,-212.9 270,-212.9 276,-212.9 282,-218.9 282,-224.9 282,-224.9 282,-248.1 282,-248.1 282,-254.1 276,-260.1 270,-260.1 270,-260.1 240,-260.1 240,-260.1 234,-260.1 228,-254.1 228,-248.1 228,-248.1 228,-224.9 228,-224.9 228,-218.9 234,-212.9 240,-212.9"/>
<text text-anchor="middle" x="254.8096" y="-244.4" font-family="Helvetica,sans-Serif" font-size="13.00" fill="#000000">fib(2)</text>
<polyline fill="none" stroke="#000000" points="228,-236.5 281.6192,-236.5 "/>
<text text-anchor="middle" x="254.8096" y="-220.8" font-family="Helvetica,sans-Serif" font-size="13.00" fill="#000000">ret: 1</text>
</g>
<!-- 18363144&#45;&gt;15210576 -->
<g id="edge4" class="edge">
<title>18363144&#45;&gt;15210576</title>
<path fill="none" stroke="#5b5b5b" d="M255,-306.6303C255,-295.6325 255,-282.3547 255,-270.3244"/>
<polygon fill="#5b5b5b" stroke="#5b5b5b" points="258.5001,-270.1621 255,-260.1621 251.5001,-270.1622 258.5001,-270.1621"/>
<text text-anchor="middle" x="266.5568" y="-281" font-family="Helvetica,sans-Serif" font-size="8.00" fill="#999999">7 (⇑8)</text>
</g>
<!-- 18362744 -->
<g id="node4" class="node">
<title>18362744</title>
<path fill="none" stroke="#000000" d="M48,-119.1C48,-119.1 78,-119.1 78,-119.1 84,-119.1 90,-125.1 90,-131.1 90,-131.1 90,-154.3 90,-154.3 90,-160.3 84,-166.3 78,-166.3 78,-166.3 48,-166.3 48,-166.3 42,-166.3 36,-160.3 36,-154.3 36,-154.3 36,-131.1 36,-131.1 36,-125.1 42,-119.1 48,-119.1"/>
<text text-anchor="middle" x="62.8096" y="-150.6" font-family="Helvetica,sans-Serif" font-size="13.00" fill="#000000">fib(2)</text>
<polyline fill="none" stroke="#000000" points="36,-142.7 89.6192,-142.7 "/>
<text text-anchor="middle" x="62.8096" y="-127" font-family="Helvetica,sans-Serif" font-size="13.00" fill="#000000">ret: 1</text>
</g>
<!-- 18361600&#45;&gt;18362744 -->
<g id="edge5" class="edge">
<title>18361600&#45;&gt;18362744</title>
<path fill="none" stroke="#272727" d="M116.8314,-212.8303C107.8779,-201.166 96.9558,-186.9369 87.2955,-174.3516"/>
<polygon fill="#272727" stroke="#272727" points="90.0282,-172.1635 81.1628,-166.3621 84.4754,-176.4258 90.0282,-172.1635"/>
<text text-anchor="middle" x="113.5568" y="-187.2" font-family="Helvetica,sans-Serif" font-size="8.00" fill="#999999">3 (⇑3)</text>
</g>
<!-- 18359544 -->
<g id="node7" class="node">
<title>18359544</title>
<path fill="none" stroke="#000000" d="M120,-119.1C120,-119.1 150,-119.1 150,-119.1 156,-119.1 162,-125.1 162,-131.1 162,-131.1 162,-154.3 162,-154.3 162,-160.3 156,-166.3 150,-166.3 150,-166.3 120,-166.3 120,-166.3 114,-166.3 108,-160.3 108,-154.3 108,-154.3 108,-131.1 108,-131.1 108,-125.1 114,-119.1 120,-119.1"/>
<text text-anchor="middle" x="134.8096" y="-150.6" font-family="Helvetica,sans-Serif" font-size="13.00" fill="#000000">fib(1)</text>
<polyline fill="none" stroke="#000000" points="108,-142.7 161.6192,-142.7 "/>
<text text-anchor="middle" x="134.8096" y="-127" font-family="Helvetica,sans-Serif" font-size="13.00" fill="#000000">ret: 1</text>
</g>
<!-- 18361600&#45;&gt;18359544 -->
<g id="edge6" class="edge">
<title>18361600&#45;&gt;18359544</title>
<path fill="none" stroke="#4e4e4e" d="M135,-212.8303C135,-201.8325 135,-188.5547 135,-176.5244"/>
<polygon fill="#4e4e4e" stroke="#4e4e4e" points="138.5001,-176.3621 135,-166.3621 131.5001,-176.3622 138.5001,-176.3621"/>
<text text-anchor="middle" x="146.5568" y="-187.2" font-family="Helvetica,sans-Serif" font-size="8.00" fill="#999999">6 (⇑4)</text>
</g>
<!-- 18354800 -->
<g id="node5" class="node">
<title>18354800</title>
<path fill="none" stroke="#000000" d="M12,-25.3C12,-25.3 42,-25.3 42,-25.3 48,-25.3 54,-31.3 54,-37.3 54,-37.3 54,-60.5 54,-60.5 54,-66.5 48,-72.5 42,-72.5 42,-72.5 12,-72.5 12,-72.5 6,-72.5 0,-66.5 0,-60.5 0,-60.5 0,-37.3 0,-37.3 0,-31.3 6,-25.3 12,-25.3"/>
<text text-anchor="middle" x="26.8096" y="-56.8" font-family="Helvetica,sans-Serif" font-size="13.00" fill="#000000">fib(1)</text>
<polyline fill="none" stroke="#000000" points="0,-48.9 53.6192,-48.9 "/>
<text text-anchor="middle" x="26.8096" y="-33.2" font-family="Helvetica,sans-Serif" font-size="13.00" fill="#000000">ret: 1</text>
</g>
<!-- 18362744&#45;&gt;18354800 -->
<g id="edge7" class="edge">
<title>18362744&#45;&gt;18354800</title>
<path fill="none" stroke="#343434" d="M53.9157,-119.0303C49.6095,-107.8103 44.3926,-94.2173 39.7024,-81.9969"/>
<polygon fill="#343434" stroke="#343434" points="42.9322,-80.644 36.0814,-72.5621 36.397,-83.1523 42.9322,-80.644"/>
<text text-anchor="middle" x="58.5568" y="-93.4" font-family="Helvetica,sans-Serif" font-size="8.00" fill="#999999">4 (⇑1)</text>
</g>
<!-- 18349992 -->
<g id="node6" class="node">
<title>18349992</title>
<path fill="none" stroke="#000000" d="M84,-25.3C84,-25.3 114,-25.3 114,-25.3 120,-25.3 126,-31.3 126,-37.3 126,-37.3 126,-60.5 126,-60.5 126,-66.5 120,-72.5 114,-72.5 114,-72.5 84,-72.5 84,-72.5 78,-72.5 72,-66.5 72,-60.5 72,-60.5 72,-37.3 72,-37.3 72,-31.3 78,-25.3 84,-25.3"/>
<text text-anchor="middle" x="98.8096" y="-56.8" font-family="Helvetica,sans-Serif" font-size="13.00" fill="#000000">fib(0)</text>
<polyline fill="none" stroke="#000000" points="72,-48.9 125.6192,-48.9 "/>
<text text-anchor="middle" x="98.8096" y="-33.2" font-family="Helvetica,sans-Serif" font-size="13.00" fill="#000000">ret: 0</text>
</g>
<!-- 18362744&#45;&gt;18349992 -->
<g id="edge8" class="edge">
<title>18362744&#45;&gt;18349992</title>
<path fill="none" stroke="#414141" d="M72.0843,-119.0303C76.3905,-107.8103 81.6074,-94.2173 86.2976,-81.9969"/>
<polygon fill="#414141" stroke="#414141" points="89.603,-83.1523 89.9186,-72.5621 83.0678,-80.644 89.603,-83.1523"/>
<text text-anchor="middle" x="94.5568" y="-93.4" font-family="Helvetica,sans-Serif" font-size="8.00" fill="#999999">5 (⇑2)</text>
</g>
<!-- 15211320 -->
<g id="node9" class="node">
<title>15211320</title>
<path fill="none" stroke="#000000" d="M192,-119.1C192,-119.1 222,-119.1 222,-119.1 228,-119.1 234,-125.1 234,-131.1 234,-131.1 234,-154.3 234,-154.3 234,-160.3 228,-166.3 222,-166.3 222,-166.3 192,-166.3 192,-166.3 186,-166.3 180,-160.3 180,-154.3 180,-154.3 180,-131.1 180,-131.1 180,-125.1 186,-119.1 192,-119.1"/>
<text text-anchor="middle" x="206.8096" y="-150.6" font-family="Helvetica,sans-Serif" font-size="13.00" fill="#000000">fib(1)</text>
<polyline fill="none" stroke="#000000" points="180,-142.7 233.6192,-142.7 "/>
<text text-anchor="middle" x="206.8096" y="-127" font-family="Helvetica,sans-Serif" font-size="13.00" fill="#000000">ret: 1</text>
</g>
<!-- 15210576&#45;&gt;15211320 -->
<g id="edge9" class="edge">
<title>15210576&#45;&gt;15211320</title>
<path fill="none" stroke="#686868" d="M242.8876,-212.8303C237.0892,-201.4992 230.0522,-187.7479 223.751,-175.4343"/>
<polygon fill="#686868" stroke="#686868" points="226.7798,-173.6698 219.1086,-166.3621 220.5483,-176.8587 226.7798,-173.6698"/>
<text text-anchor="middle" x="244.5568" y="-187.2" font-family="Helvetica,sans-Serif" font-size="8.00" fill="#999999">8 (⇑6)</text>
</g>
<!-- 18255640 -->
<g id="node10" class="node">
<title>18255640</title>
<path fill="none" stroke="#000000" d="M264,-119.1C264,-119.1 294,-119.1 294,-119.1 300,-119.1 306,-125.1 306,-131.1 306,-131.1 306,-154.3 306,-154.3 306,-160.3 300,-166.3 294,-166.3 294,-166.3 264,-166.3 264,-166.3 258,-166.3 252,-160.3 252,-154.3 252,-154.3 252,-131.1 252,-131.1 252,-125.1 258,-119.1 264,-119.1"/>
<text text-anchor="middle" x="278.8096" y="-150.6" font-family="Helvetica,sans-Serif" font-size="13.00" fill="#000000">fib(0)</text>
<polyline fill="none" stroke="#000000" points="252,-142.7 305.6192,-142.7 "/>
<text text-anchor="middle" x="278.8096" y="-127" font-family="Helvetica,sans-Serif" font-size="13.00" fill="#000000">ret: 0</text>
</g>
<!-- 15210576&#45;&gt;18255640 -->
<g id="edge10" class="edge">
<title>15210576&#45;&gt;18255640</title>
<path fill="none" stroke="#757575" d="M261.0562,-212.8303C263.8986,-201.7214 267.3361,-188.2862 270.4387,-176.1602"/>
<polygon fill="#757575" stroke="#757575" points="273.8576,-176.9176 272.9457,-166.3621 267.0761,-175.1824 273.8576,-176.9176"/>
<text text-anchor="middle" x="279.5568" y="-187.2" font-family="Helvetica,sans-Serif" font-size="8.00" fill="#999999">9 (⇑7)</text>
</g>
<!-- 15857616 -->
<g id="node12" class="node">
<title>15857616</title>
<path fill="none" stroke="#000000" d="M336,-212.9C336,-212.9 366,-212.9 366,-212.9 372,-212.9 378,-218.9 378,-224.9 378,-224.9 378,-248.1 378,-248.1 378,-254.1 372,-260.1 366,-260.1 366,-260.1 336,-260.1 336,-260.1 330,-260.1 324,-254.1 324,-248.1 324,-248.1 324,-224.9 324,-224.9 324,-218.9 330,-212.9 336,-212.9"/>
<text text-anchor="middle" x="350.8096" y="-244.4" font-family="Helvetica,sans-Serif" font-size="13.00" fill="#000000">fib(2)</text>
<polyline fill="none" stroke="#000000" points="324,-236.5 377.6192,-236.5 "/>
<text text-anchor="middle" x="350.8096" y="-220.8" font-family="Helvetica,sans-Serif" font-size="13.00" fill="#000000">ret: 1</text>
</g>
<!-- 18269072&#45;&gt;15857616 -->
<g id="edge11" class="edge">
<title>18269072&#45;&gt;15857616</title>
<path fill="none" stroke="#8f8f8f" d="M351,-306.6303C351,-295.6325 351,-282.3547 351,-270.3244"/>
<polygon fill="#8f8f8f" stroke="#8f8f8f" points="354.5001,-270.1621 351,-260.1621 347.5001,-270.1622 354.5001,-270.1621"/>
<text text-anchor="middle" x="367.004" y="-281" font-family="Helvetica,sans-Serif" font-size="8.00" fill="#999999">11 (⇑12)</text>
</g>
<!-- 18267104 -->
<g id="node15" class="node">
<title>18267104</title>
<path fill="none" stroke="#000000" d="M408,-212.9C408,-212.9 438,-212.9 438,-212.9 444,-212.9 450,-218.9 450,-224.9 450,-224.9 450,-248.1 450,-248.1 450,-254.1 444,-260.1 438,-260.1 438,-260.1 408,-260.1 408,-260.1 402,-260.1 396,-254.1 396,-248.1 396,-248.1 396,-224.9 396,-224.9 396,-218.9 402,-212.9 408,-212.9"/>
<text text-anchor="middle" x="422.8096" y="-244.4" font-family="Helvetica,sans-Serif" font-size="13.00" fill="#000000">fib(1)</text>
<polyline fill="none" stroke="#000000" points="396,-236.5 449.6192,-236.5 "/>
<text text-anchor="middle" x="422.8096" y="-220.8" font-family="Helvetica,sans-Serif" font-size="13.00" fill="#000000">ret: 1</text>
</g>
<!-- 18269072&#45;&gt;18267104 -->
<g id="edge12" class="edge">
<title>18269072&#45;&gt;18267104</title>
<path fill="none" stroke="#b6b6b6" d="M371.9803,-306.5969C377.0164,-300.6822 382.296,-294.2879 387,-288.2 391.7355,-282.0713 396.6056,-275.3774 401.1737,-268.8999"/>
<polygon fill="#b6b6b6" stroke="#b6b6b6" points="404.3366,-270.4821 407.1746,-260.2744 398.5904,-266.4844 404.3366,-270.4821"/>
<text text-anchor="middle" x="409.004" y="-281" font-family="Helvetica,sans-Serif" font-size="8.00" fill="#999999">14 (⇑13)</text>
</g>
<!-- 18264744 -->
<g id="node13" class="node">
<title>18264744</title>
<path fill="none" stroke="#000000" d="M336,-119.1C336,-119.1 366,-119.1 366,-119.1 372,-119.1 378,-125.1 378,-131.1 378,-131.1 378,-154.3 378,-154.3 378,-160.3 372,-166.3 366,-166.3 366,-166.3 336,-166.3 336,-166.3 330,-166.3 324,-160.3 324,-154.3 324,-154.3 324,-131.1 324,-131.1 324,-125.1 330,-119.1 336,-119.1"/>
<text text-anchor="middle" x="350.8096" y="-150.6" font-family="Helvetica,sans-Serif" font-size="13.00" fill="#000000">fib(1)</text>
<polyline fill="none" stroke="#000000" points="324,-142.7 377.6192,-142.7 "/>
<text text-anchor="middle" x="350.8096" y="-127" font-family="Helvetica,sans-Serif" font-size="13.00" fill="#000000">ret: 1</text>
</g>
<!-- 15857616&#45;&gt;18264744 -->
<g id="edge13" class="edge">
<title>15857616&#45;&gt;18264744</title>
<path fill="none" stroke="#9c9c9c" d="M351,-212.8303C351,-201.8325 351,-188.5547 351,-176.5244"/>
<polygon fill="#9c9c9c" stroke="#9c9c9c" points="354.5001,-176.3621 351,-166.3621 347.5001,-176.3622 354.5001,-176.3621"/>
<text text-anchor="middle" x="367.004" y="-187.2" font-family="Helvetica,sans-Serif" font-size="8.00" fill="#999999">12 (⇑10)</text>
</g>
<!-- 18254096 -->
<g id="node14" class="node">
<title>18254096</title>
<path fill="none" stroke="#000000" d="M408,-119.1C408,-119.1 438,-119.1 438,-119.1 444,-119.1 450,-125.1 450,-131.1 450,-131.1 450,-154.3 450,-154.3 450,-160.3 444,-166.3 438,-166.3 438,-166.3 408,-166.3 408,-166.3 402,-166.3 396,-160.3 396,-154.3 396,-154.3 396,-131.1 396,-131.1 396,-125.1 402,-119.1 408,-119.1"/>
<text text-anchor="middle" x="422.8096" y="-150.6" font-family="Helvetica,sans-Serif" font-size="13.00" fill="#000000">fib(0)</text>
<polyline fill="none" stroke="#000000" points="396,-142.7 449.6192,-142.7 "/>
<text text-anchor="middle" x="422.8096" y="-127" font-family="Helvetica,sans-Serif" font-size="13.00" fill="#000000">ret: 0</text>
</g>
<!-- 15857616&#45;&gt;18254096 -->
<g id="edge14" class="edge">
<title>15857616&#45;&gt;18254096</title>
<path fill="none" stroke="#a9a9a9" d="M371.9803,-212.7969C377.0164,-206.8822 382.296,-200.4879 387,-194.4 391.7355,-188.2713 396.6056,-181.5774 401.1737,-175.0999"/>
<polygon fill="#a9a9a9" stroke="#a9a9a9" points="404.3366,-176.6821 407.1746,-166.4744 398.5904,-172.6844 404.3366,-176.6821"/>
<text text-anchor="middle" x="409.004" y="-187.2" font-family="Helvetica,sans-Serif" font-size="8.00" fill="#999999">13 (⇑11)</text>
</g>
</g>
</svg>

