<?xml version="1.0" encoding="UTF-8" standalone="no"?>
<!-- Created with Inkscape (http://www.inkscape.org/) -->

<svg
   width="600"
   height="449.827"
   viewBox="0 0 158.75 119.01717"
   version="1.1"
   id="svg5"
   inkscape:version="1.2.1 (9c6d41e410, 2022-07-14)"
   sodipodi:docname="objet_feuille.svg"
   xml:space="preserve"
   xmlns:inkscape="http://www.inkscape.org/namespaces/inkscape"
   xmlns:sodipodi="http://sodipodi.sourceforge.net/DTD/sodipodi-0.dtd"
   xmlns:xlink="http://www.w3.org/1999/xlink"
   xmlns="http://www.w3.org/2000/svg"
   xmlns:svg="http://www.w3.org/2000/svg"><sodipodi:namedview
     id="namedview7"
     pagecolor="#ffffff"
     bordercolor="#666666"
     borderopacity="1.0"
     inkscape:showpageshadow="2"
     inkscape:pageopacity="0.0"
     inkscape:pagecheckerboard="0"
     inkscape:deskcolor="#d1d1d1"
     inkscape:document-units="mm"
     showgrid="true"
     inkscape:zoom="1.4396184"
     inkscape:cx="206.99931"
     inkscape:cy="273.68365"
     inkscape:window-width="1920"
     inkscape:window-height="1011"
     inkscape:window-x="0"
     inkscape:window-y="0"
     inkscape:window-maximized="1"
     inkscape:current-layer="layer2"><inkscape:grid
       type="xygrid"
       id="grid287"
       empcolor="#0000ff"
       empopacity="0.12941176"
       color="#000000"
       opacity="0.03137255"
       spacingx="2.6458333"
       spacingy="2.6458333"
       originx="0"
       originy="0" /></sodipodi:namedview><defs
     id="defs2"><inkscape:path-effect
       effect="fillet_chamfer"
       id="path-effect879"
       is_visible="true"
       lpeversion="1"
       nodesatellites_param="F,0,1,1,0,3.742509,0,1 @ F,0,1,1,0,3.742509,0,1 @ F,0,1,1,0,3.742509,0,1 @ F,0,0,1,0,3.742509,0,1"
       unit="px"
       method="auto"
       mode="F"
       radius="0"
       chamfer_steps="1"
       flexible="false"
       use_knot_distance="true"
       apply_no_radius="true"
       apply_with_radius="true"
       only_selected="false"
       hide_knots="false" /><inkscape:path-effect
       effect="fillet_chamfer"
       id="path-effect873"
       is_visible="true"
       lpeversion="1"
       nodesatellites_param="F,0,1,1,0,3.742509,0,1 @ F,0,1,1,0,3.742509,0,1 @ F,0,1,1,0,3.742509,0,1 @ F,0,0,1,0,3.742509,0,1"
       unit="px"
       method="auto"
       mode="F"
       radius="0"
       chamfer_steps="1"
       flexible="false"
       use_knot_distance="true"
       apply_no_radius="true"
       apply_with_radius="true"
       only_selected="false"
       hide_knots="false" /><inkscape:path-effect
       effect="fillet_chamfer"
       id="path-effect865"
       is_visible="true"
       lpeversion="1"
       nodesatellites_param="F,0,1,1,0,3.742509,0,1 @ F,0,1,1,0,3.742509,0,1 @ F,0,1,1,0,3.742509,0,1 @ F,0,0,1,0,3.742509,0,1"
       unit="px"
       method="auto"
       mode="F"
       radius="0"
       chamfer_steps="1"
       flexible="false"
       use_knot_distance="true"
       apply_no_radius="true"
       apply_with_radius="true"
       only_selected="false"
       hide_knots="false" /><inkscape:path-effect
       effect="fillet_chamfer"
       id="path-effect2974"
       is_visible="true"
       lpeversion="1"
       nodesatellites_param="F,0,1,1,0,4.7741579,0,1 @ F,0,1,1,0,4.7741579,0,1 @ F,0,1,1,0,4.7741579,0,1 @ F,0,1,1,0,4.7741579,0,1"
       unit="px"
       method="auto"
       mode="F"
       radius="0"
       chamfer_steps="1"
       flexible="false"
       use_knot_distance="true"
       apply_no_radius="true"
       apply_with_radius="true"
       only_selected="false"
       hide_knots="false" /><inkscape:path-effect
       effect="fillet_chamfer"
       id="path-effect2917"
       is_visible="true"
       lpeversion="1"
       nodesatellites_param="F,0,1,1,0,4.7741579,0,1 @ F,0,1,1,0,4.7741579,0,1 @ F,0,1,1,0,4.7741579,0,1 @ F,0,1,1,0,4.7741579,0,1"
       unit="px"
       method="auto"
       mode="F"
       radius="0"
       chamfer_steps="1"
       flexible="false"
       use_knot_distance="true"
       apply_no_radius="true"
       apply_with_radius="true"
       only_selected="false"
       hide_knots="false" /><clipPath
       clipPathUnits="userSpaceOnUse"
       id="clipPath3882"><rect
         style="opacity:0.507169;fill:#c4186f;fill-opacity:0.500435;stroke:none;stroke-width:0.264999;stroke-linecap:square;stroke-linejoin:round;stroke-dasharray:none;stroke-opacity:1"
         id="rect3884"
         width="94.015862"
         height="122.82368"
         x="14.599871"
         y="10.463579"
         rx="7.606648"
         ry="8.4624968"
         transform="rotate(-90)" /></clipPath></defs><g
     inkscape:groupmode="layer"
     id="layer2"
     inkscape:label="fond blanc"><rect
       style="fill:#ffffff;stroke-width:3.66501;stroke-linecap:round;stroke-linejoin:round"
       id="rect330"
       width="158.65884"
       height="118.62122"
       x="1.845417e-08"
       y="0.4417201" /></g><g
     inkscape:label="Calque 1"
     inkscape:groupmode="layer"
     id="layer1"
     style="display:inline"
     sodipodi:insensitive="true"><path
       style="fill:#e42384;fill-opacity:0.136743;stroke:none;stroke-width:0.264583px;stroke-linecap:butt;stroke-linejoin:miter;stroke-opacity:1"
       inkscape:path-effect="#path-effect879"
       inkscape:original-d="M 96.648802,79.046766 V 111.44753 H 151.00637 V 79.046766 Z"
       d="m 96.648802,82.789275 v 24.915745 a 3.742509,3.742509 45 0 0 3.742508,3.74251 l 46.87255,0 a 3.742509,3.742509 135 0 0 3.74251,-3.74251 V 82.789275 a 3.742509,3.742509 45 0 0 -3.74251,-3.742509 h -46.87255 a 3.742509,3.742509 135 0 0 -3.742508,3.742509 z"
       id="path875" /><path
       style="fill:#6f29b1;fill-opacity:0.122364;stroke:none;stroke-width:0.264583px;stroke-linecap:butt;stroke-linejoin:miter;stroke-opacity:1"
       inkscape:path-effect="#path-effect873"
       inkscape:original-d="M 96.648802,35.109981 V 75.483453 H 151.00637 V 35.109981 Z"
       d="m 96.648802,38.85249 v 32.888454 a 3.742509,3.742509 45 0 0 3.742508,3.742509 h 46.87255 a 3.742509,3.742509 135 0 0 3.74251,-3.742509 V 38.85249 a 3.742509,3.742509 45 0 0 -3.74251,-3.742509 h -46.87255 a 3.742509,3.742509 135 0 0 -3.742508,3.742509 z"
       id="path869" /><path
       style="fill:#70c7c6;fill-opacity:0.360101;stroke:none;stroke-width:0.264583px;stroke-linecap:butt;stroke-linejoin:miter;stroke-opacity:1"
       inkscape:path-effect="#path-effect865"
       inkscape:original-d="M 96.648802,17.427351 V 31.547098 H 151.00637 V 17.427351 Z"
       d="m 96.648802,21.16986 v 6.634729 a 3.742509,3.742509 45 0 0 3.742508,3.742509 h 46.87255 a 3.742509,3.742509 135 0 0 3.74251,-3.742509 V 21.16986 a 3.742509,3.742509 45 0 0 -3.74251,-3.742509 h -46.87255 a 3.742509,3.742509 135 0 0 -3.742508,3.742509 z"
       id="path354" /><text
       xml:space="preserve"
       style="font-weight:200;font-size:3.73804px;line-height:1.25;font-family:'DejaVu Sans';-inkscape-font-specification:'DejaVu Sans, Ultra-Light';stroke-width:0.264583"
       x="118.51365"
       y="25.614531"
       id="text546"
       transform="scale(0.99992691,1.0000731)"><tspan
         sodipodi:role="line"
         id="tspan544"
         style="font-style:italic;font-variant:normal;font-weight:normal;font-stretch:normal;font-size:3.73804px;font-family:sans-serif;-inkscape-font-specification:'sans-serif Italic';stroke-width:0.264583"
         x="118.51365"
         y="25.614531">feuille 1</tspan></text><text
       xml:space="preserve"
       style="font-weight:200;font-size:4.15337px;line-height:1.25;font-family:'DejaVu Sans';-inkscape-font-specification:'DejaVu Sans, Ultra-Light';fill:#2e7473;fill-opacity:0.859036;stroke:none;stroke-width:0.265;stroke-dasharray:none;stroke-opacity:1"
       x="97.848381"
       y="22.514441"
       id="text546-62"
       transform="scale(0.99992691,1.0000731)"><tspan
         sodipodi:role="line"
         id="tspan544-6"
         style="font-style:normal;font-variant:normal;font-weight:bold;font-stretch:normal;font-size:4.15337px;font-family:sans-serif;-inkscape-font-specification:'sans-serif Bold';fill:#2e7473;fill-opacity:0.859036;stroke:none;stroke-width:0.265;stroke-dasharray:none;stroke-opacity:1"
         x="97.848381"
         y="22.514441">Nom</tspan></text><text
       xml:space="preserve"
       style="font-weight:200;font-size:5px;line-height:1.25;font-family:'DejaVu Sans';-inkscape-font-specification:'DejaVu Sans, Ultra-Light';white-space:pre;inline-size:29.2489;display:inline;stroke-width:0.318516"
       x="130.87987"
       y="41.345478"
       id="text546-18"
       transform="matrix(0.83061387,0,0,0.8307353,-10.563457,5.953581)"><tspan
         x="130.87987"
         y="41.345478"
         id="tspan630"><tspan
           style="font-weight:bold;font-family:sans-serif;-inkscape-font-specification:'sans-serif Bold';fill:#5b1f93;fill-opacity:0.53414"
           id="tspan628">Attributs</tspan></tspan></text><text
       xml:space="preserve"
       style="font-weight:200;font-size:3.5px;line-height:1.25;font-family:'DejaVu Sans';-inkscape-font-specification:'DejaVu Sans, Ultra-Light';white-space:pre;inline-size:28.3055;display:inline;stroke-width:0.318516"
       x="127.56767"
       y="107.28757"
       id="text546-1"
       transform="matrix(0.83061387,0,0,0.8307353,-2.7269931,2.7291478)"><tspan
         x="127.56767"
         y="107.28757"
         id="tspan634"><tspan
           style="font-weight:bold;font-family:sans-serif;-inkscape-font-specification:'sans-serif Bold'"
           id="tspan632">Ajouter_texte</tspan></tspan></text><text
       xml:space="preserve"
       style="font-weight:200;font-size:4.15337px;line-height:1.25;font-family:'DejaVu Sans';-inkscape-font-specification:'DejaVu Sans, Ultra-Light';stroke-width:0.264583"
       x="97.848381"
       y="84.652115"
       id="text546-9"
       transform="scale(0.99992691,1.0000731)"><tspan
         sodipodi:role="line"
         id="tspan544-20"
         style="font-style:normal;font-variant:normal;font-weight:bold;font-stretch:normal;font-size:4.15337px;font-family:sans-serif;-inkscape-font-specification:'sans-serif Bold';fill:#c4186f;fill-opacity:0.500435;stroke-width:0.264583"
         x="97.848381"
         y="84.652115">Méthodes</tspan></text><text
       xml:space="preserve"
       style="font-weight:200;font-size:2.90736px;line-height:1.25;font-family:'DejaVu Sans';-inkscape-font-specification:'DejaVu Sans, Ultra-Light';stroke-width:0.264583"
       x="103.24004"
       y="99.060501"
       id="text546-6"
       transform="scale(0.99992691,1.0000731)"><tspan
         sodipodi:role="line"
         id="tspan544-0"
         style="font-style:normal;font-variant:normal;font-weight:bold;font-stretch:normal;font-size:2.90736px;font-family:sans-serif;-inkscape-font-specification:'sans-serif Bold';stroke-width:0.264583"
         x="103.24004"
         y="99.060501">Effacer_texte</tspan></text><text
       xml:space="preserve"
       style="font-weight:200;font-size:2.90736px;line-height:1.25;font-family:'DejaVu Sans';-inkscape-font-specification:'DejaVu Sans, Ultra-Light';stroke-width:0.264583"
       x="103.24004"
       y="54.654434"
       id="text546-3"
       transform="scale(0.99992691,1.0000731)"><tspan
         sodipodi:role="line"
         id="tspan544-56"
         style="font-style:normal;font-variant:normal;font-weight:bold;font-stretch:normal;font-size:2.90736px;font-family:sans-serif;-inkscape-font-specification:'sans-serif Bold';stroke-width:0.264583"
         x="103.24004"
         y="54.654434">Format : </tspan></text><text
       xml:space="preserve"
       style="font-weight:200;font-size:2.90736px;line-height:1.25;font-family:'DejaVu Sans';-inkscape-font-specification:'DejaVu Sans, Ultra-Light';stroke-width:0.264583"
       x="116.4524"
       y="54.422848"
       id="text3243-6"><tspan
         sodipodi:role="line"
         id="tspan3241-3"
         style="font-style:italic;font-variant:normal;font-weight:normal;font-stretch:normal;font-size:2.90736px;font-family:sans-serif;-inkscape-font-specification:'sans-serif Italic';stroke-width:0.264583"
         x="116.4524"
         y="54.422848">A4</tspan></text><text
       xml:space="preserve"
       style="font-weight:200;font-size:2.90736px;line-height:1.25;font-family:'DejaVu Sans';-inkscape-font-specification:'DejaVu Sans, Ultra-Light';stroke-width:0.264583"
       x="103.24004"
       y="61.861168"
       id="text546-7"
       transform="scale(0.99992691,1.0000731)"><tspan
         sodipodi:role="line"
         id="tspan544-5"
         style="font-style:normal;font-variant:normal;font-weight:bold;font-stretch:normal;font-size:2.90736px;font-family:sans-serif;-inkscape-font-specification:'sans-serif Bold';stroke-width:0.264583"
         x="103.24004"
         y="61.861168">Masse :</tspan></text><text
       xml:space="preserve"
       style="font-weight:200;font-size:2.90736px;line-height:1.25;font-family:'DejaVu Sans';-inkscape-font-specification:'DejaVu Sans, Ultra-Light';stroke-width:0.264583"
       x="115.26175"
       y="61.550163"
       id="text3243-2"><tspan
         sodipodi:role="line"
         id="tspan3241-0"
         style="font-style:italic;font-variant:normal;font-weight:normal;font-stretch:normal;font-size:2.90736px;font-family:sans-serif;-inkscape-font-specification:'sans-serif Italic';stroke-width:0.264583"
         x="115.26175"
         y="61.550163">5,0g</tspan></text><text
       xml:space="preserve"
       style="font-weight:200;font-size:2.90736px;line-height:1.25;font-family:'DejaVu Sans';-inkscape-font-specification:'DejaVu Sans, Ultra-Light';stroke-width:0.264583"
       x="103.18484"
       y="69.117424"
       id="text546-7-2"
       transform="scale(0.99992691,1.0000731)"><tspan
         sodipodi:role="line"
         id="tspan544-5-3"
         style="font-style:normal;font-variant:normal;font-weight:bold;font-stretch:normal;font-size:2.90736px;font-family:sans-serif;-inkscape-font-specification:'sans-serif Bold';stroke-width:0.264583"
         x="103.18484"
         y="69.117424">Texte :</tspan></text><text
       xml:space="preserve"
       style="font-weight:200;font-size:2.90736px;line-height:1.25;font-family:'DejaVu Sans';-inkscape-font-specification:'DejaVu Sans, Ultra-Light';stroke-width:0.264583"
       x="113.99525"
       y="69.295395"
       id="text3243-61"><tspan
         sodipodi:role="line"
         id="tspan3241-5"
         style="font-style:italic;font-variant:normal;font-weight:normal;font-stretch:normal;font-size:2.90736px;font-family:sans-serif;-inkscape-font-specification:'sans-serif Italic';stroke-width:0.264583"
         x="113.99525"
         y="69.295395">&quot;&quot;</tspan></text><text
       xml:space="preserve"
       style="font-weight:200;font-size:6px;line-height:1.25;font-family:'DejaVu Sans';-inkscape-font-specification:'DejaVu Sans, Ultra-Light';white-space:pre;inline-size:0;stroke-width:0.318516"
       x="145.44829"
       y="11.326137"
       id="text3174"
       transform="matrix(0.83067457,0,0,0.83067457,-4.6605492,2.4314362)"><tspan
         id="tspan3172"
         style="font-style:normal;font-variant:normal;font-weight:bold;font-stretch:normal;font-size:6px;font-family:sans-serif;-inkscape-font-specification:'sans-serif Bold';stroke-width:0.318516"
         x="145.44829"
         y="11.326137">Objet  </tspan></text><g
       id="g3339"
       transform="matrix(0.83067457,0,0,0.83067457,-2.7269931,2.7291478)"
       style="stroke-width:1.20384"><text
         xml:space="preserve"
         style="font-weight:200;font-size:3.5px;line-height:1.25;font-family:'DejaVu Sans';-inkscape-font-specification:'DejaVu Sans, Ultra-Light';white-space:pre;inline-size:0;stroke-width:0.318516"
         x="125.83161"
         y="51.11142"
         id="text546-2"
         transform="matrix(0.99992692,0,0,1.0000731,1.7359285,2.9715292)"><tspan
           id="tspan544-9"
           style="font-style:normal;font-variant:normal;font-weight:bold;font-stretch:normal;font-size:3.5px;font-family:sans-serif;-inkscape-font-specification:'sans-serif Bold';stroke-width:0.318516"
           x="125.83161"
           y="51.11142">Couleur :</tspan></text><text
         xml:space="preserve"
         style="font-weight:200;font-size:3.5px;line-height:1.25;font-family:'DejaVu Sans';-inkscape-font-specification:'DejaVu Sans, Ultra-Light';stroke-width:0.318516"
         x="145.15504"
         y="54.102341"
         id="text3243"><tspan
           sodipodi:role="line"
           id="tspan3241"
           style="font-style:italic;font-variant:normal;font-weight:normal;font-stretch:normal;font-size:3.5px;font-family:sans-serif;-inkscape-font-specification:'sans-serif Italic';stroke-width:0.318516"
           x="145.15504"
           y="54.102341">blanc</tspan></text></g><image
       width="144.13441"
       height="144.13441"
       preserveAspectRatio="none"
       xlink:href="data:image/jpeg;base64,/9j/4AAQSkZJRgABAQIAJQAlAAD/2wCEAAICAgICAgMDAwMEBAMEBAUFBAQFBQgGBgYGBggMBwkH BwkHDAsNCgoKDQsTDw0NDxMWEhESFhoYGBohICEsLDsBAgICAgICAwMDAwQEAwQEBQUEBAUFCAYG BgYGCAwHCQcHCQcMCw0KCgoNCxMPDQ0PExYSERIWGhgYGiEgISwsO//CABEIAnICcgMBIgACEQED EQH/xAAyAAEAAgIDAQEAAAAAAAAAAAAAAgcEBgEDCAUJAQEBAQEAAAAAAAAAAAAAAAAAAQID/9oA DAMBAAIQAxAAAAD9/AAAAAAAAAAAAAAAAAAAAAAAAAAAAAAAAAAAAAAAAAAAAAAAAAAAAAAAAAAA AAAAAAAAAAAAAAAAAAAAAAAAAAAAAAAAAAAAAAAAAAAAAAAAAAAAAAAAAAAAAAAAAAAAAAAAAAAA AAAAAAAAAAAAAAAAAAAAAAAAAAAAAAAAAAAAAAAAAAAAAAAAAAAAAAAAAAAAAAAAAAAAAAAAAAAA AAAAAAAAAAAAAAAAAAAAAAAAAAAAAAAAAAAAAAAAAAAAAAAAAAAAAAAAAAAAAAAAAAAAAAAAAAAA AAAAAAAAAAAAAAAAAAAAAAAAAAAAAAAAAAAADqO1gDPYAz2AM9gDPYAz2AM9gDPYAz2AM9gDPYAz 2AM9gDPYAz2AM9gDPYAz2AM9gDPYAz2AM9gDPYAz2AM9gDPYAz2AM9gDPYAz2AM9gDPYHeZAAAAA AAMfRdvqo22OZCsZkoxmSMZkjGZIxmSMZkjGZIxmSMZkjGZIxmSMZkjGZIxmSMZkjGZIxmSMZkjG ZIxmSMZkjGZIxmSMZkjGZIxmSMZkjGZIxmSMZkjGyOYG6yjIAAAAAA+VVFr1Ob7CfFQEAAAAAAAA AAAAAAAAAAAAAAAAAAAAAITgbrKMgAAAAAD5NUWtVJvoIcThQQAAAAAAAAAAAAAAAAAAAAAAAAAA AAhOBusoyAAAAAAPj1XaVXG9gQmrrEAAAAAAAAAAAAAAAAAAAAAAAAAAAAITgbrKMgAAAAAD4lX2 fWNb0IAjHs66CAAAAAAAAAAAAAAAAAAAAAAAAAAAEJwN1lGQAAAAAB8Ks7LrQ3uPZ10EIyHWKCAA AAAAAAAAAAAAAAAAAAAAAAAAEJwN1lGQAAAAABr9a2VWtb9GSOsUERj2ddBAAAAAAAAAAAAAAAAA AAAAAAAAACE4G6yjIAAAAAA16trHret/c8EY9nWBDjkdbniggAAAAAAAAAAAAAAAAAAAAAAAABCc DdZRkAAAAAAa5WllVjVkw7IHEZI63PFBHEOyFcCAAAAAAAAAAAAAAAAAAAAAAAAAEJwN1lGQAAAA ABrVWWlUpbHEuNOtKMcQ7IHAhxyOtzxQQAAAAAAAAAAAAAAAAAAAAAAAAhOBusoyAAAAAANYpu5K Kq94dkahDsjEeOUdbnigjiHZCuBAAAAAAAAAAAAAAAAAAAAAAAACE4G6yjIAAAAAA1fzt6I85aek +Pi/aOtKJ1pRjiHZA4EOOR1pRoIAAAAAAAAAAAAAAAAAAAAAAAQnA3WUZAAAAAAGredvRPnrTebT 8j+ubIdfZGWPX2RiPHI63PAEOvsjURAAAAAAAAAAAAAAAAAAAAAAACE4G6yjIAAAAAA1Xz/6AoSv LXvXwlse8e/Y/P8AoZ3DiUTrThDr7IkRAHWlGggAAAAAAAAAAAAAAAAAAAAABCcDdZRkAAAAAAat RN7UjXm+urjpnePRnrHwBZ56+6/k/ZzuEJ8EBHWlECHX2cVAQAAAAAAAAAAAAAAAAAAAAAAhOBus oyAAAAAANXpy46q0pCor5qrUrm26StS4sr0X5P3HN9WcVpY81zxOErr7IkRAEOJwoIAAAAAAAAAA AAAAAAAAAAAQnA3WUZAAAAADjng1ut7M0OqmrK5a62ov5m9VXed57Ho2wRZW71duC3L9eoNgm9+Y WblDicAIQnxUBAAAAAAAAAAAAAAAAAAAAACE4G6yjIAAAAAcc8HxNN3fVyuNAtTR9qcq+8q2udHt qi7cud33KttwixM3Xdga7LE+Bus0hPjKAgCHE4UEAAAAAAAAAAAAAAAAAAAAITgbrKMgAAAAAD52 vbN8U0jTbF1TSq67uLQ9KM+TYVXXF3fc0XZJLIsCp/Tcv1kmd9YIcTgBCE+KgIAAAAAAAAAAAAAA AAAAAAQnA3WUZAAAAAAHR8v7XzTWda3XXyu9ItPTtqcrW868squ4qj3K49C+kqvtLO+uPZ1yxj2d cIT4ICAIx7OuggAAAAAAAAAAAAAAAAAABCcDdZRkAAAAAAcYuXA+P8XZfmmmapYmuVVehXNpW1Ea Nedcse3bF8O+3JqUeyMvXGQ6xEOJwAhGQ6xQQAAAAAAAAAAAAAAAAAAhOBusoyAAAAAAAOnD+lA1 74m4fPK91W1fiVSmkeh/j6eXJ+jsBNX3H5OJVgfWp/Hi+c7zhjL6k7vJ3UnrqXkJHr55DL67h5J5 PWryXynrN5MmvrB5PkernlHg9XvKcj1U8qj1U8rSPU7yzI9SPLkj1C8w8np15lkemHmuR6SecJno x52mehnnzsi/1CTL4UX2F4KTmXSpqZcMdJsSNmlxyAAAAAAAARh2jCxvrD4XTsQ1fp20ad1bwNE6 9+FfRsPgrrix+SteLLiVrxZYrNZvJWKzhWKzBWqyxWsrIFcLH5K4lYYr6W/jQpb3yaLLeBpMt0Gm z3AajPaxq0tnGtz2EfAn9wfGl9cfLl9IYPOaMTs7x0dkwAAAAAAAAAAAAAAAAAAAAAAAAAAAAAAA AAAAAAAAAAAAAAAAAAAAAAAAAAAAAAAAAAAAAAAAAAAAAAAAAAAAAAAAAAAAAAAAAAAAAAAAAAAA AAAAAAAAAAAAAAAAAAAAAAAAAAAAAAAAAAAAAAAAAAAAAAAAAAAAAAAAAAAAAAAAAAAAAAAAAAAA AAAAAAAAAAAAAAAAAAAAAAAAAAAAAAAAAAAAAAAAAAAAAAAAAAAAAAAAAAAAAAAAAAAAAAAAAAAA AAAAAAAAAAAAAAAAAAAAAAAAAAAAAAAAAAAAAAAAAAAAAAAAAAAAAAAAAAAAAAAAB//EAFAQAAEC AwMFDAUIBwYGAwAAAAEAAgMEBQYRUhQVITEyEBIgMDVQUVVylLHRExYzQXEHI0J0gZGywSImNmFi kqFAQ0VTYJMkY2SCg6BzwtL/2gAIAQEAAT8A/wDVFJuUafYzoARrELE1Z5hYmrPMLE1Z5hYmrPML E1Z5hYmo1mFias8wcTVnmDias8wcTVnmDias8wcTVnmDias8wcTVnmDias8wcTVnmDias8wcTVnm Dias8wcTVnmDias8wcTVnmDias8wcTVnmDias8wcTVnmDias8wcTVnmDias8wcTVnmDias8wcTVn mDias8wcTVnmDias8wcTVnmDias8wcTVnmDias8wcTVnmDias8wcTVnmDias8wcTVnmDias8wcTV nmDias8wcTVnmDias8wcTVnmDias8wcTVnmDias8wcTVnmDias8wcTVnmDias8wcTVnmDias8wcT VnmDias8wcTVnmEfpNUKpNi6rkDfxs/H3jf3BOnxMVAQCbwWuP3J0pLk7AWRy2BZHLYFkctgWRy2 BZHLYFkctgWRy2BZHLYFkctgWRy2BZHLYFkctgWRy2BZHLYFkctgWRy2BZHLYFkctgWRy2BZHLYF kctgWRy2BZHLYFkctgWRy2BZHLYFkctgWRy2BZHLYFkctgWRy2BZHLYFkctgWRy2BZHLYFkctgWR y2BZHLYFkctgWRy2BZHLYFkctgWRy2BZHLYFkctgWRy2BZHLYFkctgWRy2BZHLYFkctgWRy2BZHL YFkctgWRy2BZHLYFkctgWRy2BZHLYFkctgWRy2BZJLYFKO9HNiG3Q3egpmyONq2w74KRiONqGt93 oYp8ERz/AC/KA7A8UzZHG1bRCcqf+1Q/+CN+W4efpflAdgeKZsjjavohO+Cp2m1f/gi/luHn6X5Q HYHimbI42sH5t/wVL02q/wDBF8Runn2X5QHYHimbI42sEmE9Un9qnfV4viN08+y/KA7A8UzZHG1g 3wnFUg/rRE+rxPxDgEc+S/KA7A8UzZHG1f2TvgVRj+s8X6s/8Tf9AS/KA7A8UzZHG1j2TlRf2mj/ AFZ34hwXc9y/KA7A8UzZHG1n2T1QxfaSY+rO/EP9AS/KA7A8UzZHG1j2T1QR+skx9WP4wiOC7nqX 5QHYHimbI42s+yeqB+0cz9XP4h/oCX5QHYHimbI42s6ITlZ/9o5n6sfxjccOC7nmX5QHYHimbI42 teycrP8A7RTX1Y/jHEHniX5QHYHimbI42tH5pys8f1jmR/0x/GN1w4J54l+UB2B4pmyONrPsnKzx /WaY+rO/EEd08E87y/KA7A8UzZHG1r2TlZ83WpjDplX/AImojdPBPO8vygOwPFM2RxtaPzTlQnXW tcOmWi+I3CN08E87S/KA7A8UzZHG1r2TlRnXWvh/xQY4/oDuHdI4J52l+UB2B4pmyONrXs3Klv3t s5P94jD72FEbjt0jgkc6y/KA7A8UzZHG1n2blLxPR2xph6Y5b/M0haxuHdPBPOsvygOwPFM2RxtZ 9k5T0bJ7SU2JhnIP9XAIi5Ebjt0jgkc6S/KA7A8UzZHG1r2ZVrY2TzDI3+XEY/8AlcCi4PAeNTtI +3TwjwTzpL8oDsDxTNkcYVWvZOVt276FFHSCFZidFTs3S5q/2spBcfjvQDuEbjt08F3OcvygOwPF M2RxhVZ9mVbMfovXyOVMT9jmwCb4klMxoDh0NJ9I3+jkeEeeJflAdgeKZsjjCqz7Mq2Iva9fI3aZ tHttM0qM+6BUoYEPoEeFpb/MCQte4RuO3SOC7nKX5QHYHimbI4wqs6Ybla5t7X/aq7NRqXU4M5CJ bEgRWxGuGsXH3KwlrZe19ChTIc3KmNa2YaMRF4eP3P1hO3DuHnmX5QHYHimbI4wqs7DlawXh6tTA 3znr5KrYz1AiMiQTvnyrvRRoJOiLAdpDT+RVGrEhXqdCnZOJv4MQfa0jW1w9xG4RuEbrhwXDnGX5 QHYHimbI4wqsbDlalt4erRS++L1S5zM9ehvcboMX5qL8Haj9hVjrXz1kahv2XxJSKQJmXv2hib0O CplVkK1IQpyTiiJAeNB94OFw9xHvHAPEHnCX5QHYHimbI4wqsbDlaRm+3yr0veXKuyl++0KzVSNV pEJ7jfHh/Nxu033/AGhWRtXUbNTnpIDt9CeR6aA4/ovH5HoKodfp1oJMR5V+q70kM7bD0OCI3Duu 4J5wl+UB2B4pmyOMKq2yVXod5cq1L375VuU2tCsxPml1z0DzdBmrmHoEQbJ/JNcWPvVBrE5TJlke WimHFb7xqI6CPeFZu18nXGNhRLoM5gv/AEX9gnwRF24eIPN8vygOwPFM2RxhVV2SqzCv3yq8C+9V mV2tCrMq5pLm3hwN4I1ghUKqCs0mDMH2t28jDoiN0H79ak4xa65SEwQQQVQLYxWsbBnSXs1NjfSH a6VCiwo8MPhvDmHU4G8IjdI4JHN8vygOwPFM2Rxh1Kpi9pVVhX3qqwNpVeW2lWZS8O0Kx9RzbWXS cQ3QZvQ3oEUavvGhAljr1ITGpSMfUqTVZqSdfCfoO007JVOrkpPXMPzcbAToPZKIuO6eCebpflAd geKZsjjDqU+LwVUod4KqcDXoVVlrwdCrEpffoVXlXw3b9hLXtILXDWCNIKodUbWqVBmtUQjexW4Y jdBClIpY65SMfUpKNqTTvhepCvzcrcyL87C/ftD4FSdQlJ5t8J4J97DocNw8E83S/KA7A8UzZHGH Up1t4Kn4etVGBrVTl779CqsrfeqxJ3h2hWPqRplYdJxDdAm9Db9QijV/NqWljgVITGrSpGPqUrFD m7jXuY4OaSHDURoIVHNQdKh0068nYBFzrul24eCRzbL8oDsDxTNkcYdSmheCpyHfep+DrVRl9aqk toKq0pffoVXlHMdvmEtcCC1w1gjSCqDVW1ukwZk+22IzeiI3X9+tSsUsfcpGPqUlH1Jjt829UCkZ Q4TMYfNNPzbcRHv+A3TwTzbL8oDsDxTNkcYVMN1qbYp2Dfep+BeCqlLa1VZTWqvJ7WhWUqRo9ZMv EN0tNEMPQIn0T9upOva5SExqUjH1Kz0k+qTAZp9E3TEd0Do+JTGMhsDWgBoFwA1AIjdPBPNkvygO wPFM2RxsYXqZYpuFrU9A1qoS2tVOU1qrSevQqxI6yFZmrZ5pLIjz/wARC+bj9ofS/wC4aVLRDDiX KnxnPLWtvJJAAGskqz9JFIpkOC4D0zv0ox/iPu+A4JHBPNkvygOwPFM2RxsUKOxTUK8Kcga1Py14 KqMrr0KqSevQqvI7WhUKoGg1oOebpaPdDjdAwu+wpwuK+Sml51rRmHi+DJsDz0GI7QweJ3CNx26R wTzXL8oDsDxTNkcbGGlRWqYhqagqdl9aqErffoVSk7wdCqsjr0KsSF4doVkaqahT8nim+ZlgGm/W 5n0XfkV8kEg2Vsq6Yu/TmZmI4n+GH82PBEcIi/nCX5QHYHimbI406lEao0O8KZgqbl771Oyt4KqE poOhVORvv0Kq0/XoUOJGolThzcMEhpuiMxMOsL5KJyWnrCU+JAcHMDowvHbLvA7pG4RukcF3NUvy gOwPFM2Rx0RlyiMvUeEpmApyWvU7KX36FUJHXoVSp19+hVWlEg6F8jPylQbBT0elVZzm0aaeHsj6 xLRtRc4YHe/oUvMS83Ahx4EVkWBEaHQ4rHBzHA+9pGgojhHm+X5QHYHimbI497FEhqNBvUzLa9Cm 5O+9TtPvv0KfphN+hVCiuff+ip6zD4hP6CoUe2FkIhNHqUxKsJvdBB30F3xhvvaqb8t9tZRobUKX JTYxwy+Xd/8AcKU+XmkuAyuiz8E+8sdDijxaVA+Wiwse7fxpuCf+ZKP8WXqF8qVgI3+MwWdtkRn4 mqHb2xMfYrsgfjHaPFQ7T2ajbFWkXfCZh+aZVqVE2J2Wd8I7D+ayqVdsx4R+ERpQew6nN+8blzug /ct67CfuRY7CfuW9dhP3Leu6D9yud0H7lc7oP3K49CuPQriririririririririririririririr iririririririririririririririririrjuS4OcAf4AmbI/sD4SiQlGl71Hk779CmKdvvco9F3/ ALlGs6HfRUWzAP0FEso0/QT7ItP0E+xzMCfY1p/u06xbcCdYlh1w/wCifYWEf7kH/tRsFA/yG/yh GwUEaoQH2L1G3uppC9TIzdTog+D3L1RnRqjzA+EV/mvVept1TU0PhHieaFm6w3VPTo+ExFH5rMFe bqqE93mL/wDpCh2haNFSn+9RfNCjWkbqqlQ71F81mi0/WtR71F81m21YHK9R73F81m21nXFS73F8 1kFr+uaj3qJ5rILX9c1LvUTzWb7X9c1LvUTzQk7ZddVHvL/NZFbLrqo94esitl11Ue8v81kNsuuq l3l6yC2fXVR7y9Zvtl11Uu8v80KfbLrqpd5f5rN9seuaj3l/ms3Wx65qXeX+aFNtif8AGaj3l/ms 22x65qXeX+aFMtgf8ZqPeX+azXbDrmo94f5oUq1/XFR7y/zQpVr+uaj3h/mhSrX9cVHvL/NCkWu6 4qPeX+aFItb1xUe8P80KPa3reod4ehRrWdb1DvD/ADQotq+t6h3h/mhRbV9b1DvD0KHarraf7w/z QoVqOtZ/vD0KFajrWf7w9CgWn61n+8P80KBafrWe7w9Cz9putJ7/AH3oWetL1pPf770yz9pGnlOe /wB96plKq7CPSTcw/tRHFUyRey4uJJ6SgLgB/YS0FOgJ8p+5OkgfcnU5vQnUtp9yNJb0J1HZhRoz D7kaIzCjQmYUaCw/RRoDMKNn2YQjZ5mFerrMKNnWYQvV1mEL1cYfor1ch4V6tw8P9F6tQ8K9WoeF erUPCvVqHhXqzDwherMPAvVmHgQs1DwoWah4V6sw8C9WYeBCzMLAvVmFgCFmoWAL1ahYQvVqHhXq 3CwIWbg4ELOQsIXq3CwhersLCF6uwcIQs9BwhCz0HCELPwcIQoEHCEKDBwhCgwcCzFBwIUODhQoc I/RCzJCH0Qsywh9EJtFhE7ITaPCJ1D4oUeF0NQpELoCbSYWELNEAdH3JtOhNOgBNY1uof2a4K4Le tW9b0L0TF6Ji9CxehYvQw+heghoyzFk0JZNCWStWStWStQlWe9ZNCWTQlk0Jegh9C9BD6F6GH0L0 MPoXoYfQvQw+hehYhCYPct43oW8b0LeN6FvW9C3rVvQrh0K4K4K4f+l7/8QAIREAAgIDAAIDAQEA AAAAAAAAAAEQMRESUCFAIFFhgEH/2gAIAQIBAT8A/pRcm1yFxkOLXG/yEPiKHFriIZal8NWL6h8V WP7H8HwlChwuEoflZGKXwVFMp4KHC4KubQxcNTTKZQ4XAUsa8FoU2vfUKcDWBwuAqh+ZfkU2vfUK GUxotQuBcs/C0IcWvfTx8P0Yy1CH76eDKMqMGBI1NTBqampqampqampqampqamDBgwY9bLMv+V// xAAcEQEAAgMAAwAAAAAAAAAAAAABEFAAESExgJD/2gAIAQMBAT8A+phUHKhwadgdYO6gpkkaZgpk g8U6YVGs052ez32A/9k= "
       id="image3824"
       x="-1.2698005"
       y="-132.44492"
       style="stroke-width:1.33712"
       transform="matrix(0,0.87513468,-0.88026575,0,-9.6659747,-2.8730487)"
       clip-path="url(#clipPath3882)" /></g></svg>
