<?xml version="1.0" encoding="UTF-8" standalone="no"?>
<!-- Created with Inkscape (http://www.inkscape.org/) -->

<svg
   width="801"
   height="600"
   viewBox="0 0 211.93258 158.75"
   version="1.1"
   id="svg5"
   inkscape:version="1.2.1 (9c6d41e410, 2022-07-14)"
   sodipodi:docname="points.svg"
   xml:space="preserve"
   inkscape:export-filename="points.png"
   inkscape:export-xdpi="1002"
   inkscape:export-ydpi="1002"
   xmlns:inkscape="http://www.inkscape.org/namespaces/inkscape"
   xmlns:sodipodi="http://sodipodi.sourceforge.net/DTD/sodipodi-0.dtd"
   xmlns="http://www.w3.org/2000/svg"
   xmlns:svg="http://www.w3.org/2000/svg"><sodipodi:namedview
     id="namedview7"
     pagecolor="#ffffff"
     bordercolor="#666666"
     borderopacity="1.0"
     inkscape:showpageshadow="2"
     inkscape:pageopacity="0.0"
     inkscape:pagecheckerboard="0"
     inkscape:deskcolor="#d1d1d1"
     inkscape:document-units="mm"
     showgrid="true"
     inkscape:zoom="0.7198092"
     inkscape:cx="310.49895"
     inkscape:cy="115.30833"
     inkscape:window-width="1920"
     inkscape:window-height="1011"
     inkscape:window-x="0"
     inkscape:window-y="0"
     inkscape:window-maximized="1"
     inkscape:current-layer="layer3"><inkscape:grid
       type="xygrid"
       id="grid277"
       spacingx="2.6458333"
       spacingy="2.6458333"
       color="#0000e5"
       opacity="0.03137255"
       empcolor="#0000ff"
       empopacity="0.12941176"
       originx="0"
       originy="0" /></sodipodi:namedview><defs
     id="defs2"><marker
       style="overflow:visible"
       id="TriangleStart"
       refX="0"
       refY="0"
       orient="auto-start-reverse"
       inkscape:stockid="TriangleStart"
       markerWidth="5.3244081"
       markerHeight="6.155385"
       viewBox="0 0 5.3244081 6.1553851"
       inkscape:isstock="true"
       inkscape:collect="always"
       preserveAspectRatio="xMidYMid"><path
         transform="scale(0.5)"
         style="fill:context-stroke;fill-rule:evenodd;stroke:context-stroke;stroke-width:1pt"
         d="M 5.77,0 -2.88,5 V -5 Z"
         id="path135" /></marker><inkscape:path-effect
       effect="fillet_chamfer"
       id="path-effect879"
       is_visible="true"
       lpeversion="1"
       nodesatellites_param="F,0,1,1,0,3.742509,0,1 @ F,0,1,1,0,3.742509,0,1 @ F,0,1,1,0,3.742509,0,1 @ F,0,0,1,0,3.742509,0,1"
       unit="px"
       method="auto"
       mode="F"
       radius="0"
       chamfer_steps="1"
       flexible="false"
       use_knot_distance="true"
       apply_no_radius="true"
       apply_with_radius="true"
       only_selected="false"
       hide_knots="false" /><inkscape:path-effect
       effect="fillet_chamfer"
       id="path-effect873"
       is_visible="true"
       lpeversion="1"
       nodesatellites_param="F,0,1,1,0,3.742509,0,1 @ F,0,1,1,0,3.742509,0,1 @ F,0,1,1,0,3.742509,0,1 @ F,0,0,1,0,3.742509,0,1"
       unit="px"
       method="auto"
       mode="F"
       radius="0"
       chamfer_steps="1"
       flexible="false"
       use_knot_distance="true"
       apply_no_radius="true"
       apply_with_radius="true"
       only_selected="false"
       hide_knots="false" /><inkscape:path-effect
       effect="fillet_chamfer"
       id="path-effect865"
       is_visible="true"
       lpeversion="1"
       nodesatellites_param="F,0,1,1,0,3.742509,0,1 @ F,0,1,1,0,3.742509,0,1 @ F,0,1,1,0,3.742509,0,1 @ F,0,0,1,0,3.742509,0,1"
       unit="px"
       method="auto"
       mode="F"
       radius="0"
       chamfer_steps="1"
       flexible="false"
       use_knot_distance="true"
       apply_no_radius="true"
       apply_with_radius="true"
       only_selected="false"
       hide_knots="false" /><inkscape:path-effect
       effect="fillet_chamfer"
       id="path-effect2974"
       is_visible="true"
       lpeversion="1"
       nodesatellites_param="F,0,1,1,0,4.7741579,0,1 @ F,0,1,1,0,4.7741579,0,1 @ F,0,1,1,0,4.7741579,0,1 @ F,0,1,1,0,4.7741579,0,1"
       unit="px"
       method="auto"
       mode="F"
       radius="0"
       chamfer_steps="1"
       flexible="false"
       use_knot_distance="true"
       apply_no_radius="true"
       apply_with_radius="true"
       only_selected="false"
       hide_knots="false" /><inkscape:path-effect
       effect="fillet_chamfer"
       id="path-effect2917"
       is_visible="true"
       lpeversion="1"
       nodesatellites_param="F,0,1,1,0,4.7741579,0,1 @ F,0,1,1,0,4.7741579,0,1 @ F,0,1,1,0,4.7741579,0,1 @ F,0,1,1,0,4.7741579,0,1"
       unit="px"
       method="auto"
       mode="F"
       radius="0"
       chamfer_steps="1"
       flexible="false"
       use_knot_distance="true"
       apply_no_radius="true"
       apply_with_radius="true"
       only_selected="false"
       hide_knots="false" /><marker
       style="overflow:visible"
       id="TriangleStart-3"
       refX="0"
       refY="0"
       orient="auto-start-reverse"
       inkscape:stockid="TriangleStart"
       markerWidth="5.3244081"
       markerHeight="6.155385"
       viewBox="0 0 5.3244081 6.1553851"
       inkscape:isstock="true"
       inkscape:collect="always"
       preserveAspectRatio="xMidYMid"><path
         transform="scale(0.5)"
         style="fill:context-stroke;fill-rule:evenodd;stroke:context-stroke;stroke-width:1pt"
         d="M 5.77,0 -2.88,5 V -5 Z"
         id="path135-6" /></marker></defs><g
     inkscape:groupmode="layer"
     id="layer3"
     inkscape:label="fond blanc"><rect
       style="fill:#ffffff;fill-opacity:1;stroke:none;stroke-width:0.450004;stroke-linecap:round;stroke-linejoin:round;stroke-dasharray:none;stroke-opacity:1"
       id="rect10437"
       width="211.668"
       height="158.75099"
       x="0"
       y="-0.00049812737" /></g><g
     inkscape:label="grille"
     inkscape:groupmode="layer"
     id="layer1"
     sodipodi:insensitive="true"><g
       id="g1786"
       transform="rotate(90,67.572989,94.072834)"><path
         style="fill:none;stroke:#000000;stroke-width:0.1;stroke-linecap:butt;stroke-linejoin:miter;stroke-dasharray:none;stroke-opacity:0.504647"
         d="M 52.916661,29.229163 V 134.8125"
         id="path1488-9-2" /><g
         id="g1791"><path
           style="fill:none;stroke:#000000;stroke-width:0.1;stroke-linecap:butt;stroke-linejoin:miter;stroke-dasharray:none;stroke-opacity:0.504647"
           d="M 13.229167,-23.562506 V 134.9375"
           id="path1488-8"
           sodipodi:nodetypes="cc" /><path
           style="fill:none;stroke:#000000;stroke-width:0.1;stroke-linecap:butt;stroke-linejoin:miter;stroke-dasharray:none;stroke-opacity:0.504647"
           d="M 26.458331,-23.687504 V 134.8125"
           id="path1488-5-7"
           sodipodi:nodetypes="cc" /><path
           style="fill:none;stroke:#000000;stroke-width:0.1;stroke-linecap:butt;stroke-linejoin:miter;stroke-dasharray:none;stroke-opacity:0.504647"
           d="M 39.687501,-23.687505 V 134.8125"
           id="path1488-27-0"
           sodipodi:nodetypes="cc" /></g></g><g
       id="g1786-2"
       transform="rotate(90,41.177155,120.59367)"><path
         style="fill:none;stroke:#000000;stroke-width:0.1;stroke-linecap:butt;stroke-linejoin:miter;stroke-dasharray:none;stroke-opacity:0.504647"
         d="M 52.916661,29.229163 V 134.8125"
         id="path1488-9-2-3" /><g
         id="g1791-7"><path
           style="fill:none;stroke:#000000;stroke-width:0.1;stroke-linecap:butt;stroke-linejoin:miter;stroke-dasharray:none;stroke-opacity:0.504647"
           d="M 13.229167,-23.562506 V 134.9375"
           id="path1488-8-5"
           sodipodi:nodetypes="cc" /><path
           style="fill:none;stroke:#000000;stroke-width:0.1;stroke-linecap:butt;stroke-linejoin:miter;stroke-dasharray:none;stroke-opacity:0.504647"
           d="M 26.458331,-23.687504 V 134.8125"
           id="path1488-5-7-9"
           sodipodi:nodetypes="cc" /><path
           style="fill:none;stroke:#000000;stroke-width:0.1;stroke-linecap:butt;stroke-linejoin:miter;stroke-dasharray:none;stroke-opacity:0.504647"
           d="M 39.687501,-23.687505 V 134.8125"
           id="path1488-27-0-2"
           sodipodi:nodetypes="cc" /></g></g><path
       style="fill:none;stroke:#000000;stroke-width:0.1;stroke-linecap:butt;stroke-linejoin:miter;stroke-dasharray:none;stroke-opacity:0.504647"
       d="M 119.11325,26.708656 V 132.292"
       id="path1488-0" /><path
       style="fill:none;stroke:#000000;stroke-width:0.1;stroke-linecap:butt;stroke-linejoin:miter;stroke-dasharray:none;stroke-opacity:0.504647"
       d="M 132.3425,26.708658 V 132.292"
       id="path1488-5-6" /><path
       style="fill:none;stroke:#000000;stroke-width:0.1;stroke-linecap:butt;stroke-linejoin:miter;stroke-dasharray:none;stroke-opacity:0.504647"
       d="M 172.03024,26.708654 V 132.292"
       id="path1488-3-2" /><path
       style="fill:none;stroke:#000000;stroke-width:0.1;stroke-linecap:butt;stroke-linejoin:miter;stroke-dasharray:none;stroke-opacity:0.504647"
       d="M 158.80099,26.708658 V 132.292"
       id="path1488-9-6" /><path
       style="fill:none;stroke:#000000;stroke-width:0.1;stroke-linecap:butt;stroke-linejoin:miter;stroke-dasharray:none;stroke-opacity:0.504647"
       d="M 145.57174,26.708657 V 132.292"
       id="path1488-27-1" /><rect
       style="fill:none;stroke:#000000;stroke-width:0.499999;stroke-linecap:round;stroke-linejoin:round;stroke-dasharray:none;stroke-opacity:1"
       id="rect407"
       width="158.5"
       height="105.58333"
       x="26.708338"
       y="26.499853" /><path
       style="fill:none;stroke:#0000ff;stroke-width:0.5;stroke-linecap:butt;stroke-linejoin:miter;stroke-dasharray:none;stroke-opacity:1;marker-end:url(#TriangleStart)"
       d="M 13.479163,79.624992 H 196.57081"
       id="path1078"
       sodipodi:nodetypes="cc" /><path
       style="fill:none;stroke:#0000ff;stroke-width:0.5;stroke-linecap:butt;stroke-linejoin:miter;stroke-dasharray:none;stroke-opacity:1;marker-end:url(#TriangleStart-3)"
       d="M 106.08333,145.77082 V 14.802087"
       id="path1078-7"
       sodipodi:nodetypes="cc" /><path
       style="fill:none;stroke:#000000;stroke-width:0.1;stroke-linecap:butt;stroke-linejoin:miter;stroke-dasharray:none;stroke-opacity:0.504647"
       d="M 39.737749,26.708661 V 132.292"
       id="path1488" /><path
       style="fill:none;stroke:#000000;stroke-width:0.1;stroke-linecap:butt;stroke-linejoin:miter;stroke-dasharray:none;stroke-opacity:0.504647"
       d="M 52.966998,26.708663 V 132.292"
       id="path1488-5" /><path
       style="fill:none;stroke:#000000;stroke-width:0.1;stroke-linecap:butt;stroke-linejoin:miter;stroke-dasharray:none;stroke-opacity:0.504647"
       d="M 92.854161,26.624842 V 132.20818"
       id="path1488-3" /><path
       style="fill:none;stroke:#000000;stroke-width:0.1;stroke-linecap:butt;stroke-linejoin:miter;stroke-dasharray:none;stroke-opacity:0.504647"
       d="M 79.425497,26.708663 V 132.292"
       id="path1488-9" /><path
       style="fill:none;stroke:#000000;stroke-width:0.1;stroke-linecap:butt;stroke-linejoin:miter;stroke-dasharray:none;stroke-opacity:0.504647"
       d="M 66.196248,26.708662 V 132.292"
       id="path1488-27" /><text
       xml:space="preserve"
       style="font-size:7px;line-height:1.25;font-family:Abaque;-inkscape-font-specification:Abaque;stroke-width:0.264583"
       x="108.98813"
       y="16.778549"
       id="text1904"><tspan
         sodipodi:role="line"
         id="tspan1902"
         style="font-style:normal;font-variant:normal;font-weight:normal;font-stretch:normal;font-size:7px;font-family:sans-serif;-inkscape-font-specification:sans-serif;fill:#0000ff;fill-opacity:1;stroke-width:0.264583"
         x="108.98813"
         y="16.778549">y</tspan></text><text
       xml:space="preserve"
       style="font-size:7px;line-height:1.25;font-family:Abaque;-inkscape-font-specification:Abaque;stroke-width:0.264583"
       x="194.76933"
       y="86.355522"
       id="text1904-2"><tspan
         sodipodi:role="line"
         id="tspan1902-8"
         style="font-style:normal;font-variant:normal;font-weight:normal;font-stretch:normal;font-size:7px;font-family:sans-serif;-inkscape-font-specification:sans-serif;fill:#0000ff;fill-opacity:1;stroke-width:0.264583"
         x="194.76933"
         y="86.355522">x</tspan></text><text
       xml:space="preserve"
       style="font-size:7px;line-height:1.25;font-family:Abaque;-inkscape-font-specification:Abaque;stroke-width:0.264583"
       x="100.38948"
       y="85.655037"
       id="text1904-2-9"><tspan
         sodipodi:role="line"
         id="tspan1902-8-7"
         style="font-style:normal;font-variant:normal;font-weight:normal;font-stretch:normal;font-size:7px;font-family:sans-serif;-inkscape-font-specification:sans-serif;fill:#0000ff;fill-opacity:1;stroke-width:0.264583"
         x="100.38948"
         y="85.655037">o</tspan></text></g><g
     inkscape:groupmode="layer"
     id="layer2"
     inkscape:label="points"
     sodipodi:insensitive="true"><path
       style="fill:none;stroke:#d50000;stroke-width:0.45;stroke-linecap:round;stroke-linejoin:miter;stroke-dasharray:none;stroke-opacity:1"
       d="M 145.52175,54.239416 V 51.593584"
       id="path2092" /><path
       style="fill:none;stroke:#d50000;stroke-width:0.45;stroke-linecap:round;stroke-linejoin:miter;stroke-dasharray:none;stroke-opacity:1"
       d="m 144.19883,52.9165 h 2.64583"
       id="path2094" /><text
       xml:space="preserve"
       style="font-size:4.23333px;line-height:1.25;font-family:Abaque;-inkscape-font-specification:Abaque;stroke-width:0.264583"
       x="148.16759"
       y="50.270649"
       id="text2098"><tspan
         sodipodi:role="line"
         id="tspan2096"
         style="font-style:normal;font-variant:normal;font-weight:normal;font-stretch:normal;font-family:sans-serif;-inkscape-font-specification:sans-serif;fill:#d50000;fill-opacity:1;stroke-width:0.264583"
         x="148.16759"
         y="50.270649">A(3;2)</tspan></text><path
       style="fill:none;stroke:#d50000;stroke-width:0.45;stroke-linecap:round;stroke-linejoin:miter;stroke-dasharray:none;stroke-opacity:1"
       d="m 66.146253,93.927159 v -2.64583"
       id="path2092-5" /><path
       style="fill:none;stroke:#d50000;stroke-width:0.45;stroke-linecap:round;stroke-linejoin:miter;stroke-dasharray:none;stroke-opacity:1"
       d="m 64.823333,92.604249 h 2.64583"
       id="path2094-4" /><text
       xml:space="preserve"
       style="font-size:4.23333px;line-height:1.25;font-family:Abaque;-inkscape-font-specification:Abaque;stroke-width:0.264583"
       x="68.381462"
       y="98.315033"
       id="text2098-7"><tspan
         sodipodi:role="line"
         id="tspan2096-6"
         style="font-style:normal;font-variant:normal;font-weight:normal;font-stretch:normal;font-family:sans-serif;-inkscape-font-specification:sans-serif;fill:#d50000;fill-opacity:1;stroke-width:0.264583"
         x="68.381462"
         y="98.315033">B(-3;-1)</tspan></text></g></svg>
